id,name,model_id:id,group_id:id,perm_read,perm_write,perm_create,perm_unlink
access_sni_rfid_public,sni.rfid.public,model_sni_rfid,,1,0,0,0
access_sni_rfid_user,sni.rfid.user,model_sni_rfid,group_rfid_user,1,1,0,0
access_sni_rfid_manager,sni.rfid.manager,model_sni_rfid,group_rfid_manager,1,1,1,1
access_sni_station_public,sni.station.public,model_sni_station,,1,0,1,0
access_sni_station_manager,sni.station.manager,model_sni_station,group_rfid_manager,1,1,1,1